{
  "title": "Promocja CCC",
  "preview": "Dotyczy produktów przecenionych i nieprzecenionych",
  "preview_link": "##mail_online_text2##",

  "logo":       "https://ccc.eu/pl/?utm_medium=mailing&utm_source=KlubCCC&utm_campaign=06_08_2019_summer_shoes_pl_f_1&utm_content=Logo",
  "damskie":    "https://ccc.eu/pl/damskie?utm_medium=mailing&utm_source=KlubCCC&utm_campaign=06_08_2019_summer_shoes_pl_f_1&utm_content=damskie",
  "meskie":     "https://ccc.eu/pl/meskie?utm_medium=mailing&utm_source=KlubCCC&utm_campaign=06_08_2019_summer_shoes_pl_f_1&utm_content=meskie",
  "dzieciece":  "https://ccc.eu/pl/dzieciece?utm_medium=mailing&utm_source=KlubCCC&utm_campaign=06_08_2019_summer_shoes_pl_f_1&utm_content=dzieciece",
  "torby":      "https://ccc.eu/pl/torby?utm_medium=mailing&utm_source=KlubCCC&utm_campaign=06_08_2019_summer_shoes_pl_f_1&utm_content=torby",

  "kv":         "https://ccc.eu/pl/dla-klubowiczow/plec:damskie/kategoria:klapki-trampki-sandaly?utm_medium=mailing&utm_source=KlubCCC&utm_campaign=06_08_2019_summer_shoes_pl_f_1&utm_content=KV",
  "kv_alt":     "Tylko do 15.08, Rabat dla\nKlubowiczów, -40%, na klapki, sandały i trampki,\ntakże na produkty przecenione",
  "belka":      "https://ccc.eu/pl/dla-klubowiczow/plec:damskie/kategoria:klapki-trampki-sandaly?utm_medium=mailing&utm_source=KlubCCC&utm_campaign=06_08_2019_summer_shoes_pl_f_1&utm_content=KV",

  "p1" :        "https://ccc.eu/pl/damskie/buty/sandaly/sandaly-jenny-fairy-wyl1745-5-bezowy-ciemny?utm_medium=mailing&utm_source=KlubCCC&utm_campaign=06_08_2019_summer_shoes_pl_f_1&utm_content=1_1",
  "p2" :        "https://ccc.eu/pl/damskie/buty/sandaly/sandaly-deezee-ls4981-04-czarny?utm_medium=mailing&utm_source=KlubCCC&utm_campaign=06_08_2019_summer_shoes_pl_f_1&utm_content=1_2",
  "p3" :        "https://ccc.eu/pl/damskie/buty/sandaly?sort=price_asc&page=1&utm_medium=mailing&utm_source=KlubCCC&utm_campaign=06_08_2019_summer_shoes_pl_f_1&utm_content=1_3",
  "p4" :        "https://ccc.eu/pl/damskie/buty/klapki/klapki-jenny-fairy-ws2590-15-czerwony?utm_medium=mailing&utm_source=KlubCCC&utm_campaign=06_08_2019_summer_shoes_pl_f_1&utm_content=2_1",
  "p5" :        "https://ccc.eu/pl/damskie/buty/klapki/klapki-jenny-fairy-ws2519-01-rozowy?utm_medium=mailing&utm_source=KlubCCC&utm_campaign=06_08_2019_summer_shoes_pl_f_1&utm_content=2_2",
  "p6" :        "https://ccc.eu/pl/damskie/buty/klapki?sort=price_asc&page=1&utm_medium=mailing&utm_source=KlubCCC&utm_campaign=06_08_2019_summer_shoes_pl_f_1&utm_content=2_3",
  "p7" :        "https://ccc.eu/pl/damskie/buty/trampki/trampki-nylon-red-wyl1429-1-rozowy?utm_medium=mailing&utm_source=KlubCCC&utm_campaign=06_08_2019_summer_shoes_pl_f_1&utm_content=3_1",
  "p8" :        "https://ccc.eu/pl/damskie/buty/trampki/trampki-nylon-red-wyl6055-1-niebieski?utm_medium=mailing&utm_source=KlubCCC&utm_campaign=06_08_2019_summer_shoes_pl_f_1&utm_content=3_2",
  "p9" :        "https://ccc.eu/pl/damskie/buty/trampki?sort=price_asc&page=1&utm_medium=mailing&utm_source=KlubCCC&utm_campaign=06_08_2019_summer_shoes_pl_f_1&utm_content=3_3",

  "banner":     "",
  "banner_alt": "Taraz -30%",
  "banner_cta": "",

  "promo":       "https://ccc.eu/pl/dla-klubowiczow/plec:damskie/kategoria:klapki-trampki-sandaly?utm_medium=mailing&utm_source=KlubCCC&utm_campaign=06_08_2019_summer_shoes_pl_f_1&utm_content=baner_promocja",
  "promo_cta":   "https://ccc.eu/pl/dla-klubowiczow/plec:damskie/kategoria:klapki-trampki-sandaly?utm_medium=mailing&utm_source=KlubCCC&utm_campaign=06_08_2019_summer_shoes_pl_f_1&utm_content=cta_promocja",
  "promo_alt":   "",

  "ccc_karta-banner": "#",
  "ccc_karta-banner_alt": "KLUB CCC",


  "i1": "https://ccc.eu/pl/ccc-klub?utm_medium=mailing&utm_source=KlubCCC&utm_campaign=06_08_2019_summer_shoes_pl_f_1&utm_content=usp_1",
  "i2": "https://ccc.eu/pl/ccc-klub?utm_medium=mailing&utm_source=KlubCCC&utm_campaign=06_08_2019_summer_shoes_pl_f_1&utm_content=usp_2",
  "i3": "https://ccc.eu/pl/ccc-klub?utm_medium=mailing&utm_source=KlubCCC&utm_campaign=06_08_2019_summer_shoes_pl_f_1&utm_content=usp_3",

  "s_fb": "https://www.facebook.com/CCC.Poland/",
  "s_in": "https://www.instagram.com/cccshoesbags/",
  "s_yt": "https://www.youtube.com/channel/UCVscWDmL_2JddDdGuku7f2w",
  "reslink": "##Link_Rezygnacji2##"
}
