{
  "title": "CCC",
  "preview": "Popust velja na artikle po redni ceni in na popustu.",
  "preview_link": "##mail_online_text2##",

  "belka": "https://ccc.eu/pl/",

  "logo":       "https://ccc.eu/si/?utm_medium=mailing&utm_source=KlubCCC&utm_campaign=08_01_19_handbags_bags_suitcases_si&utm_content=Logo",
  "damskie":    "https://ccc.eu/si/zenske?utm_medium=mailing&utm_source=KlubCCC&utm_campaign=08_01_19_handbags_bags_suitcases_si&utm_content=damskie",
  "meskie":     "https://ccc.eu/si/moski?utm_medium=mailing&utm_source=KlubCCC&utm_campaign=08_01_19_handbags_bags_suitcases_si&utm_content=meskie",
  "dzieciece":  "https://ccc.eu/si/otroci?utm_medium=mailing&utm_source=KlubCCC&utm_campaign=08_01_19_handbags_bags_suitcases_si&utm_content=dzieciece",
  "torby":      "https://ccc.eu/pl/torby?utm_medium=mailing&utm_source=KlubCCC&utm_campaign=08_01_19_handbags_bags_suitcases_si&utm_content=torby\n",

  "kv":         "https://ccc.eu/si/za-clane-ccc-kluba?sort=price_asc&page=1&utm_medium=mailing&utm_source=KlubCCC&utm_campaign=08_01_19_handbags_bags_suitcases_si&utm_content=KV",
  "kv_alt":     "\nSamo do 04.08.2019, Popust za člane\nCCC Kluba -30% Na torbice in kovčke Popust velja na artikle po redni ceni in na popustu",

  "banner":     "https://ccc.eu/si/torbice/kovcki?sort=price_asc&page=1&utm_medium=mailing&utm_source=KlubCCC&utm_campaign=08_01_19_handbags_bags_suitcases_si&utm_content=baner_walizki",
  "banner_alt": "-30%",
  "banner_cta": "https://ccc.eu/si/torbice/kovcki?sort=price_asc&page=1&utm_medium=mailing&utm_source=KlubCCC&utm_campaign=08_01_19_handbags_bags_suitcases_si&utm_content=cta_walizki",

  "banner2":      "https://ccc.eu/si/torbice/zenske-torbice?sort=price_asc&page=1&utm_medium=mailing&utm_source=KlubCCC&utm_campaign=08_01_19_handbags_bags_suitcases_si&utm_content=baner_torebki",
  "banner2_alt":  "-30%",
  "banner2_cta":  "https://ccc.eu/si/torbice/zenske-torbice?sort=price_asc&page=1&utm_medium=mailing&utm_source=KlubCCC&utm_campaign=08_01_19_handbags_bags_suitcases_si&utm_content=cta_torebki",

  "promo":       "https://ccc.eu/si/za-clane-ccc-kluba/kategorija:natikaci-sportni_cevlji-espadrile-sandal?filter%5B209336%5D%5B0%5D=6521&filter%5B209336%5D%5B1%5D=6578&filter%5B209336%5D%5B2%5D=10901&filter%5B209336%5D%5B3%5D=1296342&filter%5B209336%5D%5B4%5D=6521&filter%5B209336%5D%5B5%5D=6578&filter%5B209336%5D%5B6%5D=10901&filter%5B209336%5D%5B7%5D=1296342&sort=price_asc&page=1&utm_medium=mailing&utm_source=KlubCCC&utm_campaign=08_01_19_handbags_bags_suitcases_si&utm_content=baner_promocja",
  "promo_cta":   "https://ccc.eu/si/za-clane-ccc-kluba/kategorija:natikaci-sportni_cevlji-espadrile-sandal?filter%5B209336%5D%5B0%5D=6521&filter%5B209336%5D%5B1%5D=6578&filter%5B209336%5D%5B2%5D=10901&filter%5B209336%5D%5B3%5D=1296342&filter%5B209336%5D%5B4%5D=6521&filter%5B209336%5D%5B5%5D=6578&filter%5B209336%5D%5B6%5D=10901&filter%5B209336%5D%5B7%5D=1296342&sort=price_asc&page=1&utm_medium=mailing&utm_source=KlubCCC&utm_campaign=08_01_19_handbags_bags_suitcases_si&utm_content=cta_promocja",
  "promo_alt":   "",

  "ccc_karta-banner": "",
  "ccc_karta-banner_alt": "KLUB CCC",


  "i1": "https://ccc.eu/si/ccc-klub?utm_medium=mailing&utm_source=KlubCCC&utm_campaign=08_01_19_handbags_bags_suitcases_si&utm_content=usp_1",
  "i2": "https://ccc.eu/si/ccc-klub?utm_medium=mailing&utm_source=KlubCCC&utm_campaign=08_01_19_handbags_bags_suitcases_si&utm_content=usp_2",
  "i3": "https://ccc.eu/si/ccc-klub?utm_medium=mailing&utm_source=KlubCCC&utm_campaign=08_01_19_handbags_bags_suitcases_si&utm_content=usp_3",

  "s_fb": "https://www.facebook.com/CCC.Slovenia/",
  "s_in": "https://www.instagram.com/cccshoesbags.si/",
  "s_yt": "https://www.youtube.com/channel/UCVscWDmL_2JddDdGuku7f2w",
  "reslink": "##Link_Rezygnacji2##"
}
